<mxfile host="app.diagrams.net" modified="2021-05-31T11:49:33.216Z" agent="5.0 (X11)" etag="8ShmAoCcaNq-ecCdI4-T" version="14.7.2" type="gitlab">
  <diagram id="sdLGXOrKRZTGwjpGEL7J" name="Page-1">
    <mxGraphModel dx="2887" dy="1160" grid="1" gridSize="10" guides="1" tooltips="1" connect="1" arrows="1" fold="1" page="1" pageScale="1" pageWidth="827" pageHeight="1169" math="0" shadow="0">
      <root>
        <mxCell id="0" />
        <mxCell id="1" parent="0" />
        <mxCell id="s05LUgN7Wp6zugcZnPkB-3" value="&lt;div&gt;&lt;b&gt;Feature-Workshops&lt;/b&gt;&lt;/div&gt;&lt;div&gt;- Memoriav-Projektverantwortliche, Scrum-Team&lt;br&gt;&lt;/div&gt;&lt;div&gt;- 1 - 2x pro Jahr&lt;/div&gt;&lt;div&gt;- Durchsicht des Ideenspeichers&lt;/div&gt;- Teamevent" style="shape=hexagon;perimeter=hexagonPerimeter2;whiteSpace=wrap;html=1;fixedSize=1;fontFamily=Helvetica;fontSize=12;fontColor=#000000;align=center;strokeColor=#000000;fillColor=#ffffff;" parent="1" vertex="1">
          <mxGeometry x="-310" y="532.5" width="290" height="95" as="geometry" />
        </mxCell>
        <mxCell id="s05LUgN7Wp6zugcZnPkB-5" value="&lt;div&gt;JIRA-Backlog&lt;/div&gt;(Betreut durch PO)" style="shape=cylinder3;whiteSpace=wrap;html=1;boundedLbl=1;backgroundOutline=1;size=15;strokeColor=#999999;" parent="1" vertex="1">
          <mxGeometry x="132" y="530" width="96" height="80" as="geometry" />
        </mxCell>
        <mxCell id="s05LUgN7Wp6zugcZnPkB-6" value="&lt;div&gt;Features in Ausschreibung &amp;amp; Offerte&lt;/div&gt;" style="ellipse;shape=cloud;whiteSpace=wrap;html=1;fillColor=#E1E9F5;strokeColor=#B3B3B3;" parent="1" vertex="1">
          <mxGeometry x="20" y="80" width="190" height="80" as="geometry" />
        </mxCell>
        <mxCell id="s05LUgN7Wp6zugcZnPkB-7" value="Neue Ideen Memoriav" style="ellipse;shape=cloud;whiteSpace=wrap;html=1;fillColor=#E1E9F5;strokeColor=#B3B3B3;" parent="1" vertex="1">
          <mxGeometry x="190" y="100" width="170" height="80" as="geometry" />
        </mxCell>
        <mxCell id="s05LUgN7Wp6zugcZnPkB-8" value="Ausbau&lt;br&gt;bestehender Features" style="ellipse;shape=cloud;whiteSpace=wrap;html=1;fillColor=#E1E9F5;strokeColor=#B3B3B3;" parent="1" vertex="1">
          <mxGeometry x="10" y="130" width="170" height="80" as="geometry" />
        </mxCell>
        <mxCell id="s05LUgN7Wp6zugcZnPkB-9" value="Infrastruktur-getriebene&lt;br&gt;Features" style="ellipse;shape=cloud;whiteSpace=wrap;html=1;fillColor=#E1E9F5;strokeColor=#B3B3B3;" parent="1" vertex="1">
          <mxGeometry x="160" y="150" width="170" height="80" as="geometry" />
        </mxCell>
        <mxCell id="s05LUgN7Wp6zugcZnPkB-14" value="PO" style="shape=actor;whiteSpace=wrap;html=1;shadow=0;glass=0;sketch=0;fillColor=none;verticalAlign=top;labelPosition=center;verticalLabelPosition=bottom;align=center;" parent="1" vertex="1">
          <mxGeometry x="240" y="740" width="40" height="60" as="geometry" />
        </mxCell>
        <mxCell id="s05LUgN7Wp6zugcZnPkB-24" value="Entwicklungs-&#xa;team" style="group;labelPosition=center;verticalLabelPosition=bottom;align=center;verticalAlign=top;" parent="1" vertex="1" connectable="0">
          <mxGeometry x="400" y="670" width="50" height="70" as="geometry" />
        </mxCell>
        <mxCell id="s05LUgN7Wp6zugcZnPkB-15" value="" style="shape=actor;whiteSpace=wrap;html=1;shadow=0;glass=0;sketch=0;fillColor=none;container=0;" parent="s05LUgN7Wp6zugcZnPkB-24" vertex="1">
          <mxGeometry x="10" width="40" height="60" as="geometry" />
        </mxCell>
        <mxCell id="s05LUgN7Wp6zugcZnPkB-16" value="" style="shape=actor;whiteSpace=wrap;html=1;shadow=0;glass=0;sketch=0;fillColor=none;container=0;" parent="s05LUgN7Wp6zugcZnPkB-24" vertex="1">
          <mxGeometry y="10" width="40" height="60" as="geometry" />
        </mxCell>
        <mxCell id="s05LUgN7Wp6zugcZnPkB-25" value="Memoriav" style="group;labelPosition=center;verticalLabelPosition=bottom;align=center;verticalAlign=top;" parent="1" vertex="1" connectable="0">
          <mxGeometry x="400" y="780" width="50" height="70" as="geometry" />
        </mxCell>
        <mxCell id="s05LUgN7Wp6zugcZnPkB-18" value="" style="shape=actor;whiteSpace=wrap;html=1;shadow=0;glass=0;sketch=0;fillColor=none;container=0;" parent="s05LUgN7Wp6zugcZnPkB-25" vertex="1">
          <mxGeometry x="10" width="40" height="60" as="geometry" />
        </mxCell>
        <mxCell id="s05LUgN7Wp6zugcZnPkB-19" value="" style="shape=actor;whiteSpace=wrap;html=1;shadow=0;glass=0;sketch=0;fillColor=none;container=0;" parent="s05LUgN7Wp6zugcZnPkB-25" vertex="1">
          <mxGeometry y="10" width="40" height="60" as="geometry" />
        </mxCell>
        <mxCell id="IPYWvm1WEJb4IzoGHU1t-6" value="" style="shape=flexArrow;endArrow=classic;html=1;endWidth=50;endSize=8.67;width=44;fillColor=#dae8fc;strokeColor=none;" parent="1" edge="1">
          <mxGeometry width="50" height="50" relative="1" as="geometry">
            <mxPoint x="180" y="240" as="sourcePoint" />
            <mxPoint x="180" y="320" as="targetPoint" />
          </mxGeometry>
        </mxCell>
        <mxCell id="IPYWvm1WEJb4IzoGHU1t-11" value="Refinement der&#xa;ausgewählten&#xa;Features (JIT nach Priorität)" style="group;labelPosition=center;verticalLabelPosition=bottom;align=center;verticalAlign=top;" parent="1" vertex="1" connectable="0">
          <mxGeometry x="160" y="745" width="40" height="60" as="geometry" />
        </mxCell>
        <mxCell id="IPYWvm1WEJb4IzoGHU1t-8" value="" style="shape=flexArrow;endArrow=classic;html=1;fillColor=#d5e8d4;strokeColor=#82b366;" parent="IPYWvm1WEJb4IzoGHU1t-11" edge="1">
          <mxGeometry width="50" height="50" relative="1" as="geometry">
            <mxPoint x="-10" y="60" as="sourcePoint" />
            <mxPoint x="40" y="10" as="targetPoint" />
            <Array as="points">
              <mxPoint x="40" y="60" />
            </Array>
          </mxGeometry>
        </mxCell>
        <mxCell id="IPYWvm1WEJb4IzoGHU1t-9" value="" style="shape=flexArrow;endArrow=classic;html=1;fillColor=#ffe6cc;strokeColor=#d79b00;" parent="IPYWvm1WEJb4IzoGHU1t-11" edge="1">
          <mxGeometry width="50" height="50" relative="1" as="geometry">
            <mxPoint x="50" as="sourcePoint" />
            <mxPoint y="50" as="targetPoint" />
            <Array as="points">
              <mxPoint />
            </Array>
          </mxGeometry>
        </mxCell>
        <mxCell id="IPYWvm1WEJb4IzoGHU1t-14" value="&lt;div&gt;Stories&lt;br&gt;Tasks&lt;/div&gt;" style="shape=parallelogram;perimeter=parallelogramPerimeter;whiteSpace=wrap;html=1;fixedSize=1;" parent="1" vertex="1">
          <mxGeometry x="121" y="980" width="120" height="60" as="geometry" />
        </mxCell>
        <mxCell id="IPYWvm1WEJb4IzoGHU1t-16" value="JIRA: Next-To-Do" style="shape=cylinder3;whiteSpace=wrap;html=1;boundedLbl=1;backgroundOutline=1;size=15;strokeColor=#B3B3B3;" parent="1" vertex="1">
          <mxGeometry x="680" y="960" width="96" height="80" as="geometry" />
        </mxCell>
        <mxCell id="IPYWvm1WEJb4IzoGHU1t-18" value="&lt;div&gt;&lt;br&gt;&lt;br&gt;&lt;br&gt;Wartungs-&lt;/div&gt;&lt;div&gt;arbeiten&lt;/div&gt;" style="triangle;whiteSpace=wrap;html=1;rotation=0;fillColor=#f8cecc;strokeColor=#b85450;direction=north;" parent="1" vertex="1">
          <mxGeometry x="1222" y="1040" width="92" height="77" as="geometry" />
        </mxCell>
        <mxCell id="IPYWvm1WEJb4IzoGHU1t-21" value="&lt;div&gt;&lt;b&gt;Planungstreffen&lt;/b&gt;&lt;/div&gt;&lt;div&gt;- Zweiwöchentlich&lt;/div&gt;&lt;div&gt;- Was geschah?&lt;/div&gt;&lt;div&gt;- Was kommt als nächstes?&lt;/div&gt;&lt;div&gt;- Wo muss allenfalls repriorisiert werden?&lt;br&gt;&lt;/div&gt;" style="shape=hexagon;perimeter=hexagonPerimeter2;whiteSpace=wrap;html=1;fixedSize=1;" parent="1" vertex="1">
          <mxGeometry x="573" y="750" width="310" height="100" as="geometry" />
        </mxCell>
        <mxCell id="IPYWvm1WEJb4IzoGHU1t-25" value="&lt;br&gt;&lt;br&gt;&lt;br&gt;&lt;br&gt;&lt;div&gt;Altlasten&lt;/div&gt;" style="triangle;whiteSpace=wrap;html=1;rotation=0;fillColor=#f8cecc;strokeColor=#b85450;direction=north;" parent="1" vertex="1">
          <mxGeometry x="1222" y="954" width="92" height="77" as="geometry" />
        </mxCell>
        <mxCell id="akA726rQuX_BDZccSmbS-1" value="&lt;div&gt;&lt;b&gt;Product-Absprachen&lt;/b&gt;&lt;/div&gt;&lt;div&gt;- Daniel, Roberta, Sebastian&lt;/div&gt;&lt;div&gt;- monatlich&lt;/div&gt;&lt;div&gt;- Allgemeiner Austausch über Projekt&lt;/div&gt;&lt;div&gt;- Durchsicht aktuelle Bugs / Verbesserungen / Wartung&lt;br&gt;&lt;/div&gt;&lt;div&gt;- Besprechung &amp;amp; Priorisierung von neuen Features&lt;br&gt;&lt;/div&gt;" style="shape=hexagon;perimeter=hexagonPerimeter2;whiteSpace=wrap;html=1;fixedSize=1;" vertex="1" parent="1">
          <mxGeometry x="15.5" y="330" width="329" height="100" as="geometry" />
        </mxCell>
        <mxCell id="akA726rQuX_BDZccSmbS-2" value="" style="shape=flexArrow;endArrow=classic;html=1;endWidth=50;endSize=8.67;width=44;fillColor=#dae8fc;strokeColor=none;" edge="1" parent="1">
          <mxGeometry width="50" height="50" relative="1" as="geometry">
            <mxPoint x="179" y="440" as="sourcePoint" />
            <mxPoint x="179" y="520" as="targetPoint" />
          </mxGeometry>
        </mxCell>
        <mxCell id="akA726rQuX_BDZccSmbS-3" value="" style="shape=flexArrow;endArrow=classic;html=1;endWidth=50;endSize=8.67;width=44;fillColor=#dae8fc;strokeColor=none;" edge="1" parent="1">
          <mxGeometry width="50" height="50" relative="1" as="geometry">
            <mxPoint x="179" y="630" as="sourcePoint" />
            <mxPoint x="179" y="710" as="targetPoint" />
          </mxGeometry>
        </mxCell>
        <mxCell id="akA726rQuX_BDZccSmbS-4" value="" style="shape=flexArrow;endArrow=classic;html=1;endWidth=50;endSize=8.67;width=32;fillColor=#dae8fc;strokeColor=none;startArrow=block;startWidth=50;startSize=8.67;" edge="1" parent="1">
          <mxGeometry width="50" height="50" relative="1" as="geometry">
            <mxPoint x="254.5" y="580" as="sourcePoint" />
            <mxPoint x="344.5" y="580" as="targetPoint" />
          </mxGeometry>
        </mxCell>
        <UserObject label="Epic-Beschreibung in Confluence" link="https://ub-basel.atlassian.net/wiki/spaces/MEMOBASE/pages/719552594/Epics" id="akA726rQuX_BDZccSmbS-5">
          <mxCell style="shape=note;whiteSpace=wrap;html=1;backgroundOutline=1;darkOpacity=0.05;strokeColor=#999999;" vertex="1" parent="1">
            <mxGeometry x="370" y="530" width="80" height="100" as="geometry" />
          </mxCell>
        </UserObject>
        <mxCell id="akA726rQuX_BDZccSmbS-6" value="" style="shape=flexArrow;endArrow=classic;html=1;endWidth=50;endSize=8.67;width=32;fillColor=#dae8fc;strokeColor=none;startArrow=block;startWidth=50;startSize=8.67;" edge="1" parent="1">
          <mxGeometry width="50" height="50" relative="1" as="geometry">
            <mxPoint x="290" y="774.5" as="sourcePoint" />
            <mxPoint x="380" y="774.5" as="targetPoint" />
          </mxGeometry>
        </mxCell>
        <mxCell id="akA726rQuX_BDZccSmbS-7" value="" style="shape=flexArrow;endArrow=classic;html=1;endWidth=50;endSize=8.67;width=44;fillColor=#dae8fc;strokeColor=none;" edge="1" parent="1">
          <mxGeometry width="50" height="50" relative="1" as="geometry">
            <mxPoint x="180" y="880" as="sourcePoint" />
            <mxPoint x="180" y="960" as="targetPoint" />
          </mxGeometry>
        </mxCell>
        <mxCell id="akA726rQuX_BDZccSmbS-8" value="" style="shape=flexArrow;endArrow=classic;html=1;endWidth=50;endSize=8.67;width=32;fillColor=#dae8fc;strokeColor=none;startArrow=block;startWidth=50;startSize=8.67;" edge="1" parent="1">
          <mxGeometry width="50" height="50" relative="1" as="geometry">
            <mxPoint x="20" y="579.5" as="sourcePoint" />
            <mxPoint x="110" y="579.5" as="targetPoint" />
          </mxGeometry>
        </mxCell>
        <mxCell id="akA726rQuX_BDZccSmbS-9" value="" style="shape=flexArrow;endArrow=classic;html=1;endWidth=50;endSize=8.67;width=44;fillColor=#dae8fc;strokeColor=none;" edge="1" parent="1">
          <mxGeometry width="50" height="50" relative="1" as="geometry">
            <mxPoint x="260" y="1009.5" as="sourcePoint" />
            <mxPoint x="650" y="1010" as="targetPoint" />
          </mxGeometry>
        </mxCell>
        <mxCell id="akA726rQuX_BDZccSmbS-11" value="&lt;br&gt;&lt;br&gt;&lt;br&gt;&lt;br&gt;Bugs" style="triangle;whiteSpace=wrap;html=1;rotation=0;fillColor=#f8cecc;strokeColor=#b85450;direction=north;" vertex="1" parent="1">
          <mxGeometry x="1222" y="870" width="92" height="77" as="geometry" />
        </mxCell>
        <mxCell id="akA726rQuX_BDZccSmbS-12" value="" style="shape=flexArrow;endArrow=classic;html=1;endWidth=50;endSize=8.67;width=44;fillColor=#dae8fc;strokeColor=none;" edge="1" parent="1">
          <mxGeometry width="50" height="50" relative="1" as="geometry">
            <mxPoint x="727.5" y="1050" as="sourcePoint" />
            <mxPoint x="727.5" y="1130" as="targetPoint" />
          </mxGeometry>
        </mxCell>
        <mxCell id="akA726rQuX_BDZccSmbS-13" value="" style="shape=flexArrow;endArrow=classic;html=1;endWidth=50;endSize=8.67;width=32;fillColor=#dae8fc;strokeColor=none;startArrow=block;startWidth=50;startSize=8.67;" edge="1" parent="1">
          <mxGeometry width="50" height="50" relative="1" as="geometry">
            <mxPoint x="370" y="380" as="sourcePoint" />
            <mxPoint x="460" y="380" as="targetPoint" />
          </mxGeometry>
        </mxCell>
        <UserObject label="Product-Absprachen in Confluence" link="https://ub-basel.atlassian.net/wiki/spaces/MEMOBASE/pages/720076836/Product-Absprachen" id="akA726rQuX_BDZccSmbS-14">
          <mxCell style="shape=note;whiteSpace=wrap;html=1;backgroundOutline=1;darkOpacity=0.05;strokeColor=#999999;" vertex="1" parent="1">
            <mxGeometry x="485.5" y="330" width="80" height="100" as="geometry" />
          </mxCell>
        </UserObject>
        <UserObject label="Meldungen Memoriav" link="https://ub-basel.atlassian.net/wiki/spaces/MEMOBASE/pages/721748096/Meldungen+Memoriav" id="akA726rQuX_BDZccSmbS-16">
          <mxCell style="shape=note;whiteSpace=wrap;html=1;backgroundOutline=1;darkOpacity=0.05;strokeColor=#999999;" vertex="1" parent="1">
            <mxGeometry x="1126" y="850" width="80" height="100" as="geometry" />
          </mxCell>
        </UserObject>
        <mxCell id="akA726rQuX_BDZccSmbS-17" value="JIRA: Done" style="shape=cylinder3;whiteSpace=wrap;html=1;boundedLbl=1;backgroundOutline=1;size=15;strokeColor=#82b366;fillColor=#d5e8d4;" vertex="1" parent="1">
          <mxGeometry x="680" y="1140" width="96" height="80" as="geometry" />
        </mxCell>
        <mxCell id="akA726rQuX_BDZccSmbS-18" value="" style="shape=flexArrow;endArrow=classic;html=1;endWidth=50;endSize=8.67;width=32;fillColor=#dae8fc;strokeColor=none;startArrow=block;startWidth=50;startSize=8.67;" edge="1" parent="1">
          <mxGeometry width="50" height="50" relative="1" as="geometry">
            <mxPoint x="727.5" y="940" as="sourcePoint" />
            <mxPoint x="727.5" y="860" as="targetPoint" />
          </mxGeometry>
        </mxCell>
        <mxCell id="akA726rQuX_BDZccSmbS-23" value="&lt;div&gt;JIRA-Backlog&lt;/div&gt;" style="shape=cylinder3;whiteSpace=wrap;html=1;boundedLbl=1;backgroundOutline=1;size=15;strokeColor=#999999;" vertex="1" parent="1">
          <mxGeometry x="1110" y="970" width="96" height="80" as="geometry" />
        </mxCell>
        <mxCell id="akA726rQuX_BDZccSmbS-24" value="" style="shape=flexArrow;endArrow=classic;html=1;endWidth=50;endSize=8.67;width=44;fillColor=#dae8fc;strokeColor=none;" edge="1" parent="1">
          <mxGeometry width="50" height="50" relative="1" as="geometry">
            <mxPoint x="1090" y="1010" as="sourcePoint" />
            <mxPoint x="790" y="1009.5" as="targetPoint" />
          </mxGeometry>
        </mxCell>
        <mxCell id="akA726rQuX_BDZccSmbS-15" value="&lt;div&gt;- Wenn es eilt, direkt in Next-To-Do-Spalte&lt;/div&gt;&lt;div&gt;- Ansonsten Diskussion im Rahmen der Product-Absprache&lt;br&gt;&lt;/div&gt;&lt;div&gt;- Grundsätzlich hohe Priorität&lt;/div&gt;" style="shape=callout;whiteSpace=wrap;html=1;perimeter=calloutPerimeter;strokeColor=#d6b656;position2=0.14;size=52;position=0.18;base=20;direction=east;fillColor=#fff2cc;" vertex="1" parent="1">
          <mxGeometry x="830" y="880" width="280" height="120" as="geometry" />
        </mxCell>
        <mxCell id="akA726rQuX_BDZccSmbS-25" value="&lt;div&gt;&lt;b&gt;Dailies&lt;/b&gt;&lt;/div&gt;&lt;div&gt;- Was habe ich am letzten Arbeitstag gemacht?&lt;br&gt;- Was mache ich heute?&lt;/div&gt;&lt;div&gt;- Gibt es Blocker?&lt;br&gt;&lt;/div&gt;" style="shape=hexagon;perimeter=hexagonPerimeter2;whiteSpace=wrap;html=1;fixedSize=1;" vertex="1" parent="1">
          <mxGeometry x="573" y="660" width="310" height="80" as="geometry" />
        </mxCell>
        <mxCell id="akA726rQuX_BDZccSmbS-26" value="&lt;div&gt;&lt;b&gt;Retrospektiven&lt;br&gt;&lt;/b&gt;&lt;/div&gt;&lt;div&gt;&amp;nbsp;- vierwöchentlich im Anschluss an Planungstreffen&lt;br&gt;- Was läuft gut, wo können wir uns optimieren?&lt;b&gt;&lt;br&gt;&lt;/b&gt;&lt;/div&gt;" style="shape=hexagon;perimeter=hexagonPerimeter2;whiteSpace=wrap;html=1;fixedSize=1;strokeColor=#666666;fillColor=#f5f5f5;fontColor=#333333;" vertex="1" parent="1">
          <mxGeometry x="740" y="460" width="310" height="80" as="geometry" />
        </mxCell>
      </root>
    </mxGraphModel>
  </diagram>
</mxfile>
