<mxfile host="app.diagrams.net" modified="2021-09-24T13:43:28.973Z" agent="5.0 (X11)" etag="_K1-_WZupPHgQ5mq_tSV" version="15.3.0" type="gitlab">
  <diagram id="3LHSd1nWMQ-VwZ6P9HU3" name="Page-1">
    <mxGraphModel dx="1872" dy="823" grid="1" gridSize="10" guides="1" tooltips="1" connect="1" arrows="1" fold="1" page="1" pageScale="1" pageWidth="1169" pageHeight="827" math="0" shadow="0">
      <root>
        <mxCell id="0" />
        <mxCell id="1" parent="0" />
        <mxCell id="uthH9k2O6ZRjxfKtD-Cc-1" value="" style="endArrow=none;html=1;strokeWidth=3;fillColor=#f5f5f5;strokeColor=#666666;" parent="1" edge="1">
          <mxGeometry width="50" height="50" relative="1" as="geometry">
            <mxPoint x="400" y="820" as="sourcePoint" />
            <mxPoint x="400" y="10" as="targetPoint" />
          </mxGeometry>
        </mxCell>
        <mxCell id="uthH9k2O6ZRjxfKtD-Cc-2" value="" style="endArrow=none;html=1;strokeWidth=3;fillColor=#f5f5f5;strokeColor=#666666;" parent="1" edge="1">
          <mxGeometry width="50" height="50" relative="1" as="geometry">
            <mxPoint x="810" y="819" as="sourcePoint" />
            <mxPoint x="810" y="9" as="targetPoint" />
          </mxGeometry>
        </mxCell>
        <mxCell id="uthH9k2O6ZRjxfKtD-Cc-3" value="Idee" style="text;html=1;strokeColor=none;fillColor=none;align=center;verticalAlign=middle;whiteSpace=wrap;rounded=0;fontSize=23;fontStyle=1" parent="1" vertex="1">
          <mxGeometry x="40" y="30" width="40" height="20" as="geometry" />
        </mxCell>
        <mxCell id="uthH9k2O6ZRjxfKtD-Cc-4" value="Konzeption (kontinuerlich)" style="text;html=1;strokeColor=none;fillColor=none;align=center;verticalAlign=middle;whiteSpace=wrap;rounded=0;fontSize=23;fontStyle=1" parent="1" vertex="1">
          <mxGeometry x="435" y="30" width="300" height="20" as="geometry" />
        </mxCell>
        <mxCell id="uthH9k2O6ZRjxfKtD-Cc-5" value="Umsetzung (punktuell)" style="text;html=1;strokeColor=none;fillColor=none;align=center;verticalAlign=middle;whiteSpace=wrap;rounded=0;fontSize=23;fontStyle=1" parent="1" vertex="1">
          <mxGeometry x="850" y="30" width="255" height="20" as="geometry" />
        </mxCell>
        <mxCell id="uthH9k2O6ZRjxfKtD-Cc-7" value="&lt;div&gt;Features in Ausschreibung &amp;amp; Offerte&lt;/div&gt;" style="ellipse;shape=cloud;whiteSpace=wrap;html=1;fillColor=#E1E9F5;strokeColor=#B3B3B3;" parent="1" vertex="1">
          <mxGeometry x="160" y="20" width="190" height="80" as="geometry" />
        </mxCell>
        <mxCell id="uthH9k2O6ZRjxfKtD-Cc-8" value="Ideen Memoriav" style="ellipse;shape=cloud;whiteSpace=wrap;html=1;fillColor=#E1E9F5;strokeColor=#B3B3B3;" parent="1" vertex="1">
          <mxGeometry x="160" y="150" width="170" height="80" as="geometry" />
        </mxCell>
        <mxCell id="uthH9k2O6ZRjxfKtD-Cc-9" value="Ausbau&lt;br&gt;bestehender Features" style="ellipse;shape=cloud;whiteSpace=wrap;html=1;fillColor=#E1E9F5;strokeColor=#B3B3B3;" parent="1" vertex="1">
          <mxGeometry x="40" y="90" width="170" height="80" as="geometry" />
        </mxCell>
        <mxCell id="uthH9k2O6ZRjxfKtD-Cc-10" value="Infrastruktur-getriebene&lt;br&gt;Features" style="ellipse;shape=cloud;whiteSpace=wrap;html=1;fillColor=#E1E9F5;strokeColor=#B3B3B3;" parent="1" vertex="1">
          <mxGeometry x="30" y="204" width="170" height="80" as="geometry" />
        </mxCell>
        <mxCell id="uthH9k2O6ZRjxfKtD-Cc-11" value="&lt;div&gt;&lt;b&gt;Feature-Workshop&lt;/b&gt;&lt;/div&gt;- Projektteam&lt;br&gt;&lt;div&gt;- einmal jährlich, Oktober / November&lt;/div&gt;&lt;div&gt;- Diskussion der hochpriorisierten Features&lt;/div&gt;&lt;div&gt;- Erstellung Roadmap für folgendes Jahr&lt;/div&gt;&lt;div&gt;- Grobplanung Ressourcen&lt;br&gt;&lt;/div&gt;" style="shape=hexagon;perimeter=hexagonPerimeter2;whiteSpace=wrap;html=1;fixedSize=1;fontFamily=Helvetica;fontSize=12;fontColor=#000000;align=center;strokeColor=#000000;fillColor=#ffffff;" parent="1" vertex="1">
          <mxGeometry x="440" y="440" width="260" height="95" as="geometry" />
        </mxCell>
        <mxCell id="uthH9k2O6ZRjxfKtD-Cc-13" value="&lt;div&gt;&lt;b&gt;Product-Absprache&lt;/b&gt;&lt;/div&gt;&lt;div&gt;- PO + PL Memoriav&lt;br&gt;&lt;/div&gt;&lt;div&gt;- monatlich&lt;br&gt;&lt;/div&gt;&lt;div&gt;- Allgemeiner Austausch über Projekt&lt;/div&gt;&lt;div&gt;- Besprechung &amp;amp; Priorisierung von neuen Features&lt;br&gt;&lt;/div&gt;&lt;div&gt;- Feature-Commitment durch Memoriav-PL&lt;br&gt;&lt;/div&gt;" style="shape=hexagon;perimeter=hexagonPerimeter2;whiteSpace=wrap;html=1;fixedSize=1;" parent="1" vertex="1">
          <mxGeometry x="430" y="90" width="329" height="100" as="geometry" />
        </mxCell>
        <mxCell id="uthH9k2O6ZRjxfKtD-Cc-14" value="" style="shape=flexArrow;endArrow=classic;html=1;endWidth=50;endSize=8.67;width=44;fillColor=#dae8fc;strokeColor=none;" parent="1" edge="1">
          <mxGeometry width="50" height="50" relative="1" as="geometry">
            <mxPoint x="330" y="140" as="sourcePoint" />
            <mxPoint x="420" y="140" as="targetPoint" />
          </mxGeometry>
        </mxCell>
        <UserObject label="Product-Absprachen in Confluence" link="https://ub-basel.atlassian.net/wiki/spaces/MEMOBASE/pages/720076836/Product-Absprachen" id="uthH9k2O6ZRjxfKtD-Cc-18">
          <mxCell style="shape=note;whiteSpace=wrap;html=1;backgroundOutline=1;darkOpacity=0.05;strokeColor=#999999;" parent="1" vertex="1">
            <mxGeometry x="710" y="275" width="80" height="100" as="geometry" />
          </mxCell>
        </UserObject>
        <mxCell id="uthH9k2O6ZRjxfKtD-Cc-20" value="" style="shape=flexArrow;endArrow=classic;html=1;endWidth=50;endSize=8.67;width=32;fillColor=#dae8fc;strokeColor=none;startArrow=block;startWidth=50;startSize=8.67;" parent="1" edge="1">
          <mxGeometry width="50" height="50" relative="1" as="geometry">
            <mxPoint x="740" y="200" as="sourcePoint" />
            <mxPoint x="740" y="270" as="targetPoint" />
          </mxGeometry>
        </mxCell>
        <mxCell id="uthH9k2O6ZRjxfKtD-Cc-22" value="" style="shape=flexArrow;endArrow=classic;html=1;endWidth=50;endSize=8.67;width=44;fillColor=#dae8fc;strokeColor=none;" parent="1" edge="1">
          <mxGeometry width="50" height="50" relative="1" as="geometry">
            <mxPoint x="499.5" y="210" as="sourcePoint" />
            <mxPoint x="499.5" y="280" as="targetPoint" />
          </mxGeometry>
        </mxCell>
        <mxCell id="uthH9k2O6ZRjxfKtD-Cc-23" value="Epic" style="shape=parallelogram;perimeter=parallelogramPerimeter;whiteSpace=wrap;html=1;fixedSize=1;fontSize=12;" parent="1" vertex="1">
          <mxGeometry x="450" y="300" width="100" height="50" as="geometry" />
        </mxCell>
        <mxCell id="uthH9k2O6ZRjxfKtD-Cc-24" value="" style="shape=flexArrow;endArrow=classic;html=1;endWidth=50;endSize=8.67;width=44;fillColor=#dae8fc;strokeColor=none;" parent="1" edge="1">
          <mxGeometry width="50" height="50" relative="1" as="geometry">
            <mxPoint x="499.5" y="380" as="sourcePoint" />
            <mxPoint x="500" y="430" as="targetPoint" />
          </mxGeometry>
        </mxCell>
        <mxCell id="uthH9k2O6ZRjxfKtD-Cc-26" value="" style="shape=flexArrow;endArrow=classic;html=1;endWidth=50;endSize=8.67;width=32;fillColor=#dae8fc;strokeColor=none;startArrow=block;startWidth=50;startSize=8.67;entryX=0;entryY=0.5;entryDx=0;entryDy=0;entryPerimeter=0;" parent="1" target="uthH9k2O6ZRjxfKtD-Cc-27" edge="1">
          <mxGeometry width="50" height="50" relative="1" as="geometry">
            <mxPoint x="549.5" y="324.5" as="sourcePoint" />
            <mxPoint x="610" y="325" as="targetPoint" />
          </mxGeometry>
        </mxCell>
        <UserObject label="Epic-Beschreibung in Confluence" link="https://ub-basel.atlassian.net/wiki/spaces/MEMOBASE/pages/719552594/Epics" id="uthH9k2O6ZRjxfKtD-Cc-27">
          <mxCell style="shape=note;whiteSpace=wrap;html=1;backgroundOutline=1;darkOpacity=0.05;strokeColor=#999999;" parent="1" vertex="1">
            <mxGeometry x="620" y="275" width="80" height="100" as="geometry" />
          </mxCell>
        </UserObject>
        <mxCell id="uthH9k2O6ZRjxfKtD-Cc-28" value="&lt;div&gt;&lt;b&gt;Refinement-Prozess&lt;/b&gt;&lt;br&gt;&lt;/div&gt;&lt;div&gt;- PO + PL Memoriav; Entwicklungsteam nach Bedarf&lt;/div&gt;&lt;div&gt;- JIT nach Priorität&lt;/div&gt;&lt;div&gt;- Herunterbrechen der Features auf Schätz- und implementierbare Tasks&lt;br&gt;&lt;/div&gt;" style="shape=hexagon;perimeter=hexagonPerimeter2;whiteSpace=wrap;html=1;fixedSize=1;" parent="1" vertex="1">
          <mxGeometry x="440" y="610" width="329" height="100" as="geometry" />
        </mxCell>
        <mxCell id="uthH9k2O6ZRjxfKtD-Cc-29" value="" style="shape=flexArrow;endArrow=classic;html=1;endWidth=50;endSize=8.67;width=44;fillColor=#dae8fc;strokeColor=none;" parent="1" edge="1">
          <mxGeometry width="50" height="50" relative="1" as="geometry">
            <mxPoint x="499.5" y="545" as="sourcePoint" />
            <mxPoint x="500" y="595" as="targetPoint" />
          </mxGeometry>
        </mxCell>
        <mxCell id="uthH9k2O6ZRjxfKtD-Cc-30" value="Tasks / Stories" style="shape=parallelogram;perimeter=parallelogramPerimeter;whiteSpace=wrap;html=1;fixedSize=1;fontSize=12;" parent="1" vertex="1">
          <mxGeometry x="525" y="750" width="120" height="50" as="geometry" />
        </mxCell>
        <mxCell id="uthH9k2O6ZRjxfKtD-Cc-31" value="" style="shape=flexArrow;endArrow=classic;html=1;endWidth=44;endSize=8.67;width=44;fillColor=#dae8fc;strokeColor=none;" parent="1" edge="1">
          <mxGeometry width="50" height="50" relative="1" as="geometry">
            <mxPoint x="461" y="730" as="sourcePoint" />
            <mxPoint x="520.5" y="780" as="targetPoint" />
            <Array as="points">
              <mxPoint x="460.5" y="780" />
            </Array>
          </mxGeometry>
        </mxCell>
        <mxCell id="uthH9k2O6ZRjxfKtD-Cc-32" value="PL Memoriav:&lt;br&gt;OK?" style="rhombus;whiteSpace=wrap;html=1;fontSize=12;" parent="1" vertex="1">
          <mxGeometry x="695" y="735" width="120" height="80" as="geometry" />
        </mxCell>
        <mxCell id="uthH9k2O6ZRjxfKtD-Cc-33" value="" style="shape=flexArrow;endArrow=classic;html=1;endWidth=50;endSize=8.67;width=44;fillColor=#dae8fc;strokeColor=none;" parent="1" edge="1">
          <mxGeometry width="50" height="50" relative="1" as="geometry">
            <mxPoint x="650" y="774.5" as="sourcePoint" />
            <mxPoint x="690" y="775" as="targetPoint" />
          </mxGeometry>
        </mxCell>
        <mxCell id="uthH9k2O6ZRjxfKtD-Cc-34" value="Nein" style="shape=flexArrow;endArrow=classic;html=1;endWidth=44;endSize=8.67;width=44;fillColor=#dae8fc;strokeColor=none;labelBackgroundColor=none;" parent="1" edge="1">
          <mxGeometry width="50" height="50" relative="1" as="geometry">
            <mxPoint x="800" y="750" as="sourcePoint" />
            <mxPoint x="770" y="670" as="targetPoint" />
            <Array as="points">
              <mxPoint x="810" y="710" />
              <mxPoint x="800" y="680" />
            </Array>
          </mxGeometry>
        </mxCell>
        <mxCell id="uthH9k2O6ZRjxfKtD-Cc-35" value="Ja" style="shape=flexArrow;endArrow=classic;html=1;endWidth=44;endSize=8.67;width=44;fillColor=#dae8fc;strokeColor=none;labelBackgroundColor=none;" parent="1" edge="1">
          <mxGeometry width="50" height="50" relative="1" as="geometry">
            <mxPoint x="830" y="772.5" as="sourcePoint" />
            <mxPoint x="1090" y="620" as="targetPoint" />
            <Array as="points">
              <mxPoint x="1090" y="773" />
            </Array>
          </mxGeometry>
        </mxCell>
        <mxCell id="uthH9k2O6ZRjxfKtD-Cc-36" value="JIRA: Next-To-Do" style="shape=cylinder3;whiteSpace=wrap;html=1;boundedLbl=1;backgroundOutline=1;size=15;strokeColor=#B3B3B3;" parent="1" vertex="1">
          <mxGeometry x="1040" y="530" width="96" height="80" as="geometry" />
        </mxCell>
        <mxCell id="uthH9k2O6ZRjxfKtD-Cc-37" value="JIRA: Pending" style="shape=cylinder3;whiteSpace=wrap;html=1;boundedLbl=1;backgroundOutline=1;size=15;strokeColor=#B3B3B3;" parent="1" vertex="1">
          <mxGeometry x="1040" y="404" width="96" height="80" as="geometry" />
        </mxCell>
        <mxCell id="uthH9k2O6ZRjxfKtD-Cc-38" value="JIRA: Done" style="shape=cylinder3;whiteSpace=wrap;html=1;boundedLbl=1;backgroundOutline=1;size=15;strokeColor=#B3B3B3;" parent="1" vertex="1">
          <mxGeometry x="1040" y="280" width="96" height="80" as="geometry" />
        </mxCell>
        <mxCell id="uthH9k2O6ZRjxfKtD-Cc-39" value="" style="shape=curlyBracket;whiteSpace=wrap;html=1;rounded=1;fontSize=12;strokeWidth=8;strokeColor=#DAE8FC;" parent="1" vertex="1">
          <mxGeometry x="990" y="284" width="40" height="326" as="geometry" />
        </mxCell>
        <mxCell id="uthH9k2O6ZRjxfKtD-Cc-40" value="&lt;div&gt;&lt;b&gt;Planungstreffen&lt;/b&gt;&lt;/div&gt;&lt;div&gt;- PO + PL Memoriav, Entwicklungsteam&lt;br&gt;&lt;/div&gt;&lt;div&gt;- Zweiwöchentlich&lt;/div&gt;&lt;div&gt;- Wo stehen die Arbeiten?&lt;/div&gt;&lt;div&gt;- Repriorisierungen?&lt;br&gt;&lt;/div&gt;" style="shape=hexagon;perimeter=hexagonPerimeter2;whiteSpace=wrap;html=1;fixedSize=1;" parent="1" vertex="1">
          <mxGeometry x="815" y="320" width="170" height="120" as="geometry" />
        </mxCell>
        <mxCell id="uthH9k2O6ZRjxfKtD-Cc-41" value="&lt;div&gt;&lt;b&gt;Dailies&lt;/b&gt;&lt;/div&gt;&lt;div&gt;- SM + Entwicklungsteam&lt;br&gt;&lt;/div&gt;&lt;div&gt;- Was ist erledigt, was steht an?&lt;br&gt;&lt;/div&gt;&lt;div&gt;- Gibt es Bedarf nach Absprache / Blocker?&lt;br&gt;&lt;/div&gt;" style="shape=hexagon;perimeter=hexagonPerimeter2;whiteSpace=wrap;html=1;fixedSize=1;" parent="1" vertex="1">
          <mxGeometry x="815" y="450" width="170" height="90" as="geometry" />
        </mxCell>
        <UserObject label="Planungs-treffen in Confluence" link="https://ub-basel.atlassian.net/wiki/spaces/MEMOBASE/pages/721780854/Planungstreffen" id="uthH9k2O6ZRjxfKtD-Cc-42">
          <mxCell style="shape=note;whiteSpace=wrap;html=1;backgroundOutline=1;darkOpacity=0.05;strokeColor=#999999;" parent="1" vertex="1">
            <mxGeometry x="850" y="110" width="80" height="100" as="geometry" />
          </mxCell>
        </UserObject>
        <mxCell id="uthH9k2O6ZRjxfKtD-Cc-43" value="" style="shape=flexArrow;endArrow=classic;html=1;endWidth=50;endSize=8.67;width=32;fillColor=#dae8fc;strokeColor=none;startArrow=block;startWidth=50;startSize=8.67;" parent="1" edge="1">
          <mxGeometry width="50" height="50" relative="1" as="geometry">
            <mxPoint x="890" y="220" as="sourcePoint" />
            <mxPoint x="890" y="310" as="targetPoint" />
            <Array as="points">
              <mxPoint x="890.5" y="280" />
            </Array>
          </mxGeometry>
        </mxCell>
        <mxCell id="uthH9k2O6ZRjxfKtD-Cc-44" value="&lt;div&gt;&lt;b&gt;Feature-Abnahme&lt;/b&gt;&lt;/div&gt;&lt;div&gt;- PO + PL Memoriav, ev. Entwicklungsteam&lt;br&gt;&lt;/div&gt;&lt;div&gt;- Findet bei Bedarf statt&lt;/div&gt;&lt;div&gt;- : Abschluss Epic&lt;br&gt;&lt;/div&gt;&lt;div&gt;- : Zurück in Refinement-Prozess&lt;br&gt;&lt;/div&gt;" style="shape=hexagon;perimeter=hexagonPerimeter2;whiteSpace=wrap;html=1;fixedSize=1;" parent="1" vertex="1">
          <mxGeometry x="940" y="75" width="224" height="115" as="geometry" />
        </mxCell>
        <mxCell id="uthH9k2O6ZRjxfKtD-Cc-45" value="" style="shape=flexArrow;endArrow=classic;html=1;endWidth=50;endSize=8.67;width=44;fillColor=#dae8fc;strokeColor=none;" parent="1" edge="1">
          <mxGeometry width="50" height="50" relative="1" as="geometry">
            <mxPoint x="1087.5" y="270" as="sourcePoint" />
            <mxPoint x="1087.5" y="200" as="targetPoint" />
          </mxGeometry>
        </mxCell>
        <mxCell id="uthH9k2O6ZRjxfKtD-Cc-46" value="" style="endArrow=none;html=1;labelBackgroundColor=none;fontSize=12;strokeWidth=3;" parent="1" edge="1">
          <mxGeometry width="50" height="50" relative="1" as="geometry">
            <mxPoint x="10" y="360" as="sourcePoint" />
            <mxPoint x="390" y="360" as="targetPoint" />
          </mxGeometry>
        </mxCell>
        <mxCell id="uthH9k2O6ZRjxfKtD-Cc-47" value="&lt;div&gt;Nebenläufig&lt;/div&gt;" style="text;html=1;strokeColor=none;fillColor=none;align=center;verticalAlign=middle;whiteSpace=wrap;rounded=0;fontSize=23;fontStyle=1" parent="1" vertex="1">
          <mxGeometry x="80" y="394" width="40" height="20" as="geometry" />
        </mxCell>
        <mxCell id="uthH9k2O6ZRjxfKtD-Cc-49" value="&lt;div&gt;&lt;b&gt;Teamevent&lt;/b&gt;&lt;/div&gt;&lt;div&gt;- Projektteam&lt;br&gt;&lt;/div&gt;&lt;div&gt;- 1 - 2x pro Jahr&lt;br&gt;- Informeller Austausch&lt;b&gt;&lt;br&gt;&lt;/b&gt;&lt;/div&gt;" style="shape=hexagon;perimeter=hexagonPerimeter2;whiteSpace=wrap;html=1;fixedSize=1;fontFamily=Helvetica;fontSize=12;fontColor=#000000;align=center;strokeColor=#000000;fillColor=#ffffff;" parent="1" vertex="1">
          <mxGeometry x="10" y="530" width="380" height="75" as="geometry" />
        </mxCell>
        <mxCell id="uthH9k2O6ZRjxfKtD-Cc-50" value="&lt;div&gt;&lt;b&gt;Steuerungstreffen&lt;/b&gt;&lt;br&gt;&lt;/div&gt;&lt;div&gt;- PL + GF Memoriav, PO, Teamleitung UB-IT &lt;br&gt;&lt;/div&gt;&lt;div&gt;- dreimal jährlich&lt;br&gt;&lt;/div&gt;&lt;div&gt;- Was läuft gut im Projekt, was nicht?&lt;/div&gt;&lt;div&gt;- Ressourcenplanung&lt;br&gt;&lt;/div&gt;" style="shape=hexagon;perimeter=hexagonPerimeter2;whiteSpace=wrap;html=1;fixedSize=1;fontFamily=Helvetica;fontSize=12;fontColor=#000000;align=center;strokeColor=#000000;fillColor=#ffffff;" parent="1" vertex="1">
          <mxGeometry x="10" y="430" width="380" height="80" as="geometry" />
        </mxCell>
        <mxCell id="kRtmoVRR5H3b_TzR4FdP-2" value="&lt;div&gt;&lt;b&gt;Retrospektiven&lt;/b&gt;&lt;/div&gt;&lt;div&gt;- SM + Entwicklungsteam &lt;br&gt;&lt;/div&gt;&lt;div&gt;- ungefähr monatlich&lt;br&gt;- Was läuft gut, wo können &lt;br&gt;wir optimieren?&lt;b&gt;&lt;br&gt;&lt;/b&gt;&lt;/div&gt;" style="shape=hexagon;perimeter=hexagonPerimeter2;whiteSpace=wrap;html=1;fixedSize=1;" parent="1" vertex="1">
          <mxGeometry x="815" y="550" width="170" height="90" as="geometry" />
        </mxCell>
        <mxCell id="kRtmoVRR5H3b_TzR4FdP-3" value="Entwicklungen im &lt;br&gt;Umfeld" style="ellipse;shape=cloud;whiteSpace=wrap;html=1;fillColor=#E1E9F5;strokeColor=#B3B3B3;" parent="1" vertex="1">
          <mxGeometry x="170" y="270" width="170" height="80" as="geometry" />
        </mxCell>
      </root>
    </mxGraphModel>
  </diagram>
</mxfile>
